{
  "data": [
    {
      "date": "2021-08-25T00:00:00",
      "startOn": "6:30 AM",
      "endOn": "7 AM",
      "type": 1,
      "text": "Some event"
    },
    {
      "date": "2021-08-25T00:00:00",
      "startOn": "7:30 AM",
      "endOn": "8 AM",
      "type": 2,
      "text": "Some event"
    },
    {
      "date": "2021-08-25T00:00:00",
      "startOn": "8:30 AM",
      "endOn": "9:00 AM",
      "type": 3,
      "text": "Some event"
    }
  ]
}

