<svg width="98" height="98" viewBox="0 0 98 98" fill="none" xmlns="http://www.w3.org/2000/svg">
<path d="M58.8417 68.9658C57.4278 68.9658 57.4278 71.1618 58.8417 71.1618C60.2557 71.1618 60.2557 68.9658 58.8417 68.9658Z" fill="black"/>
<path d="M12.0214 83.7274C12.0214 84.7986 12.8891 85.677 13.971 85.677H32.6955H33.8631H48.7742C52.1377 85.677 55.5013 85.677 58.8542 85.677H75.0078H77.2038H78.3928C79.4426 85.677 80.2888 84.82 80.2888 83.7809V65.442C80.2888 65.3242 80.2781 65.2171 80.2567 65.11C82.1099 64.403 83.6738 63.0961 84.7557 61.2965C86.3625 58.6292 86.5446 55.3513 85.2485 52.5341C80.0853 41.3079 78.0286 41.308 77.1502 41.308H76.9038C76.1112 41.308 75.1042 41.7043 73.5188 43.8895C72.2334 42.1221 71.1729 41.308 70.1339 41.308H69.8875C68.9984 41.308 68.0986 41.8971 67.0595 43.1718L55.4906 30.2746C55.0621 29.7926 54.4408 29.5141 53.7874 29.5141C53.134 29.5141 52.5234 29.7926 52.0842 30.2746L46.0212 37.0339V30.7352C46.0212 30.2532 45.8391 29.7926 45.5285 29.4391L30.4567 12.6427C30.0925 12.2357 29.5569 12 29.0106 12C28.4643 12 27.9287 12.2357 27.5645 12.6427L12.4927 29.4391C12.1714 29.7926 12 30.2532 12 30.7352V83.7274H12.0214ZM78.0929 83.4703H77.1931V65.7205H78.0929V83.4703ZM76.9038 43.5039H77.1181C77.7179 43.6325 79.7639 45.8713 83.2453 53.4446C84.2415 55.5977 84.1023 58.115 82.8704 60.161C81.6814 62.132 79.7104 63.3425 77.4609 63.471C77.3752 63.471 77.2787 63.471 77.1931 63.471V55.3299C77.1931 54.7622 76.9895 54.2266 76.6146 53.8088L72.7369 49.4919C75.6934 43.8253 76.8824 43.5039 76.9038 43.5039ZM69.8982 43.5039H70.1125C70.1446 43.5146 70.7766 43.6753 72.2227 45.882C71.8906 46.439 71.5478 47.0496 71.1729 47.7458L68.5592 44.8322C69.4912 43.611 69.9089 43.5039 69.8982 43.5039ZM53.7446 31.7314C53.7553 31.7207 53.766 31.6993 53.8088 31.6993C53.8517 31.6993 53.8624 31.7207 53.8731 31.7314L74.9864 55.2656C74.9971 55.2871 75.0078 55.2978 75.0078 55.3192V65.4206V83.4703H59.9468C59.9468 79.8282 59.9468 76.1861 59.9468 72.5441C59.9468 71.1301 57.7508 71.1301 57.7508 72.5441C57.7508 76.1861 57.7508 79.8282 57.7508 83.4703H49.8668C49.8668 76.5503 49.8668 69.6304 49.8668 62.7105C52.4913 62.7105 55.1264 62.7105 57.7508 62.7105C57.7508 64.2958 57.7508 65.8919 57.7508 67.4773C57.7508 68.8913 59.9468 68.8913 59.9468 67.4773C59.9468 65.517 59.9468 63.5674 59.9468 61.6071C59.9468 61.018 59.4433 60.5038 58.8434 60.5038C55.4799 60.5038 52.1163 60.5038 48.7635 60.5038C48.1743 60.5038 47.6601 61.0073 47.6601 61.6071C47.6601 68.8913 47.6601 76.1861 47.6601 83.4703H33.8524H32.6848C32.642 83.4703 32.5991 83.4274 32.5991 83.3846V55.3192C32.5991 55.2978 32.6098 55.2764 32.6205 55.2656L53.7446 31.7314ZM14.2174 30.8209L29.032 14.3031L43.8467 30.8209V39.4762L30.9923 53.8088C30.6174 54.2266 30.4139 54.7729 30.4139 55.3299V83.3953C30.4139 83.4274 30.4246 83.4489 30.4246 83.481H14.2281V30.8209H14.2174Z" fill="black"/>
<path d="M33.6258 45.0781V30.6598C33.6258 29.6207 32.7795 28.7852 31.7512 28.7852H25.7418C24.7027 28.7852 23.8672 29.6314 23.8672 30.6598V45.0781C23.8672 46.1171 24.7134 46.9527 25.7418 46.9527H31.7512C32.7795 46.9634 33.6258 46.1171 33.6258 45.0781ZM31.4298 44.7567H26.0631V30.9811H31.4298V44.7567Z" fill="black"/>
</svg>
