{
  "data": [
    {
      "ID": 1,
      "Date": "2021-01-02T00:00:00",
      "AdminID": "PRO00002",
      "ShortDescription": "01 SPARE FOOT STORAGE, RIETFONTEIN",
      "OWNAdminID": "OWN00005",
      "OwnerName": "MARI, M",
      "TENAdminID": "TEN00042",
      "TenantName": "MEYER, A",
      "TransNo": "#29061386 Pro000.OREMIT00000001",
      "Amount": "1,084.00",
      "Description": "Payment to Owner",
      "ContraAccountNR": "9000.00",
      "Recon": false
    },
    {
      "ID": 2,
      "Date": "2021-01-02T00:00:00",
      "AdminID": "PRO00002",
      "ShortDescription": "01 SPARE FOOT STORAGE, RIETFONTEIN",
      "OWNAdminID": "OWN00005",
      "OwnerName": "MARI, M",
      "TENAdminID": "TEN00042",
      "TenantName": "MEYER, A",
      "TransNo": "#29061386 Pro000.OREMIT00000001",
      "Amount": "1,084.00",
      "Description": "Payment to Owner",
      "ContraAccountNR": "15,000.00",
      "Recon": false
    },
    {
      "ID": 3,
      "Date": "2021-01-02T00:00:00",
      "AdminID": "PRO00002",
      "ShortDescription": "01 SPARE FOOT STORAGE, RIETFONTEIN",
      "OWNAdminID": "OWN00005",
      "OwnerName": "MARI, M",
      "TENAdminID": "TEN00042",
      "TenantName": "MEYER, A",
      "TransNo": "#29061386 Pro000.OREMIT00000001",
      "Amount": "1,084.00",
      "Description": "Payment to Owner",
      "ContraAccountNR": "15,000.00",
      "Recon": true
    },
    {
      "ID": 4,
      "Date": "2021-01-02T00:00:00",
      "AdminID": "PRO00002",
      "ShortDescription": "01 SPARE FOOT STORAGE, RIETFONTEIN",
      "OWNAdminID": "OWN00005",
      "OwnerName": "MARI, M",
      "TENAdminID": "TEN00042",
      "TenantName": "MEYER, A",
      "TransNo": "#29061386 Pro000.OREMIT00000001",
      "Amount": "1,084.00",
      "Description": "Payment to Owner",
      "ContraAccountNR": "9000.00",
      "Recon": true
    },
    {
      "ID": 5,
      "Date": "2021-01-02T00:00:00",
      "AdminID": "PRO00003",
      "ShortDescription": "01 SPARE FOOT STORAGE, RIETFONTEIN",
      "OWNAdminID": "OWN00005",
      "OwnerName": "MARI, M",
      "TENAdminID": "TEN00042",
      "TenantName": "MEYER, A",
      "TransNo": "#29061386 Pro000.OREMIT00000001",
      "Amount": "1,084.00",
      "Description": "Payment to Owner-correction",
      "ContraAccountNR": "8500.00",
      "Recon": false
    },
    {
      "ID": 6,
      "Date": "2021-01-02T00:00:00",
      "AdminID": "PRO00003",
      "ShortDescription": "01 SPARE FOOT STORAGE, RIETFONTEIN",
      "OWNAdminID": "OWN00005",
      "OwnerName": "MARI, M",
      "TENAdminID": "TEN00042",
      "TenantName": "MEYER, A",
      "TransNo": "#29061386 Pro000.OREMIT00000001",
      "Amount": "1,084.00",
      "Description": "Bank Cost Integrated",
      "ContraAccountNR": "9000.00",
      "Recon": true
    },
    {
      "ID": 7,
      "Date": "2021-01-02T00:00:00",
      "AdminID": "PRO00003",
      "ShortDescription": "01 SPARE FOOT STORAGE, RIETFONTEIN",
      "OWNAdminID": "OWN00005",
      "OwnerName": "MARI, M",
      "TENAdminID": "TEN00042",
      "TenantName": "MEYER, A",
      "TransNo": "#29061386 Pro000.OREMIT00000001",
      "Amount": "1,084.00",
      "Description": "Payment to Owner",
      "ContraAccountNR": "12,000.00",
      "Recon": false
    },
    {
      "ID": 8,
      "Date": "2021-01-02T00:00:00",
      "AdminID": "PRO00003",
      "ShortDescription": "01 SPARE FOOT STORAGE, RIETFONTEIN",
      "OWNAdminID": "OWN00005",
      "OwnerName": "MARI, M",
      "TENAdminID": "TEN00042",
      "TenantName": "MEYER, A",
      "TransNo": "#29061386 Pro000.OREMIT00000001",
      "Amount": "1,084.00",
      "Description": "Payment to Owner",
      "ContraAccountNR": "9000.00",
      "Recon": false
    },
    {
      "ID": 9,
      "Date": "2021-01-02T00:00:00",
      "AdminID": "PRO00004",
      "ShortDescription": "01 SPARE FOOT STORAGE, RIETFONTEIN",
      "OWNAdminID": "OWN00005",
      "OwnerName": "MARI, M",
      "TENAdminID": "TEN00042",
      "TenantName": "MEYER, A",
      "TransNo": "#29061386 Pro000.OREMIT00000001",
      "Amount": "1,084.00",
      "Description": "Payment to Owner",
      "ContraAccountNR": "9000.00",
      "Recon": true
    },
    {
      "ID": 10,
      "Date": "2021-01-02T00:00:00",
      "AdminID": "PRO00004",
      "ShortDescription": "01 SPARE FOOT STORAGE, RIETFONTEIN",
      "OWNAdminID": "OWN00005",
      "OwnerName": "MARI, M",
      "TENAdminID": "TEN00042",
      "TenantName": "MEYER, A",
      "TransNo": "#29061386 Pro000.OREMIT00000001",
      "Amount": "-1,084.00",
      "Description": "Bank Cost Integrated",
      "ContraAccountNR": "9000.00",
      "Recon": false
    }
  ],
  "meta": {
    "total": 10,
    "perPage": 10,
    "page": 1
  }
}
