{
  "data": [
    {
      "ID": 1,
      "PROAdminID": "PRO00002",
      "Property": "01 SPARE FOOT STORAGE, RIETFONTEIN",
      "OWNAdminID": "OWN00005",
      "Owner": "VAN NIEKERK",
      "TENAdminID": "TEN00042",
      "Tenant": "VENTER, E",
      "InvoiceAgencyFeeOnReceipt": true,
      "SubAGENCYAcc": "ACC00002",
      "Rent": "15,000.00",
      "AgencyFee": "15,000.00",
      "DOBATCH": true
    },
    {
      "ID": 2,
      "PROAdminID": "PRO00003",
      "Property": "013 ROSKA NOORD, AKASIA",
      "OWNAdminID": "OWN00005",
      "Owner": "MARI, M",
      "TENAdminID": "TEN00042",
      "Tenant": "MEYER, A",
      "InvoiceAgencyFeeOnReceipt": true,
      "SubAGENCYAcc": "ACC00002",
      "Rent": "15,000.00",
      "AgencyFee": "15,000.00",
      "DOBATCH": true
    },
    {
      "ID": 3,
      "PROAdminID": "PRO00004",
      "Property": "01 SPARE FOOT STORAGE, RIETFONTEIN",
      "OWNAdminID": "OWN00027",
      "Owner": "VAN NIEKERK",
      "TENAdminID": "TEN00042",
      "Tenant": "DE KLERK",
      "InvoiceAgencyFeeOnReceipt": true,
      "SubAGENCYAcc": "ACC00002",
      "Rent": "15,000.00",
      "AgencyFee": "15,000.00",
      "DOBATCH": true
    },
    {
      "ID": 4,
      "PROAdminID": "PRO00022",
      "Property": "03 AFRICAN ROAD, WEST HILL",
      "OWNAdminID": "OWN00089",
      "Owner": "MARI, M",
      "TENAdminID": "TEN00042",
      "Tenant": "MEYER, A",
      "InvoiceAgencyFeeOnReceipt": false,
      "SubAGENCYAcc": "ACC00002",
      "Rent": "9,000.00",
      "AgencyFee": "9,000.00",
      "DOBATCH": false
    },
    {
      "ID": 5,
      "PROAdminID": "PRO00005",
      "Property": "06 VILLA ROSA STREET",
      "OWNAdminID": "OWN00046",
      "Owner": "VAN JAARSVELDT",
      "TENAdminID": "TEN00042",
      "Tenant": "MEYER, A",
      "InvoiceAgencyFeeOnReceipt": true,
      "SubAGENCYAcc": "ACC00002",
      "Rent": "8,500.00",
      "AgencyFee": "8,500.00",
      "DOBATCH": true
    },
    {
      "ID": 6,
      "PROAdminID": "PRO00458",
      "Property": "12 ISSIE STRAAT, GARSFONTEIN",
      "OWNAdminID": "OWN00005",
      "Owner": "DON",
      "TENAdminID": "TEN00042",
      "Tenant": "STRYDOM",
      "InvoiceAgencyFeeOnReceipt": false,
      "SubAGENCYAcc": "ACC00002",
      "Rent": "9,000.00",
      "AgencyFee": "9,000.00",
      "DOBATCH": false
    },
    {
      "ID": 7,
      "PROAdminID": "PRO00089",
      "Property": "13 ISSIE STREET, MOUNTAIN VIEW",
      "OWNAdminID": "OWN00029",
      "Owner": "VERAT",
      "TENAdminID": "TEN00042",
      "Tenant": "VAN JAARSVELDT",
      "InvoiceAgencyFeeOnReceipt": true,
      "SubAGENCYAcc": "ACC00002",
      "Rent": "8,500.00",
      "AgencyFee": "8,500.00",
      "DOBATCH": true
    }
  ],
  "meta": {
    "total": 7,
    "perPage": 10,
    "page": 1
  }
}
